{
  "email": "johndoe@example.com",
  "firstName": "john",
  "lastName": "doe",
  "passwordHash": null,
  "favoriteWallpapers": ["5ffd89109408b73d1cb8a121","5ffd89089408b73d1cb8a120","6000083693d73b2fd424e59b"]
}